module gitlab.com/idoko/swapiex

go 1.17

require (
	github.com/gin-gonic/gin v1.7.4
	github.com/go-redis/redis/v8 v8.11.3
	github.com/kardianos/service v1.2.0
	github.com/lib/pq v1.10.3
	github.com/pkg/errors v0.9.1
	github.com/rs/zerolog v1.25.0
)

require (
	github.com/cespare/xxhash/v2 v2.1.1 // indirect
	github.com/dgryski/go-rendezvous v0.0.0-20200823014737-9f7001d12a5f // indirect
	github.com/gin-contrib/sse v0.1.0 // indirect
	github.com/go-playground/locales v0.13.0 // indirect
	github.com/go-playground/universal-translator v0.17.0 // indirect
	github.com/go-playground/validator/v10 v10.4.1 // indirect
	github.com/golang/protobuf v1.5.2 // indirect
	github.com/json-iterator/go v1.1.9 // indirect
	github.com/leodido/go-urn v1.2.0 // indirect
	github.com/mattn/go-isatty v0.0.12 // indirect
	github.com/modern-go/concurrent v0.0.0-20180228061459-e0a39a4cb421 // indirect
	github.com/modern-go/reflect2 v0.0.0-20180701023420-4b7aa43c6742 // indirect
	github.com/ugorji/go/codec v1.1.7 // indirect
	golang.org/x/crypto v0.0.0-20200622213623-75b288015ac9 // indirect
	golang.org/x/sys v0.0.0-20210510120138-977fb7262007 // indirect
	google.golang.org/protobuf v1.26.0 // indirect
	gopkg.in/yaml.v2 v2.4.0 // indirect
)
